B_M | Separation Power = 0.274241 | Variable Type : Double
Mass_Kmu_as_mumu | Separation Power = 0.267277 | Variable Type : Double
Mass_KMuMuisotr_as_KJpsi | Separation Power = 0.207110 | Variable Type : Double
Mass_KMuMuisotr_as_KJpsi_constr | Separation Power = 0.133900 | Variable Type : Double
B_Nu_Lo | Separation Power = 0.124316 | Variable Type : Double
K_0_50_nc_asy_PT | Separation Power = 0.098801 | Variable Type : Double
K_0_50_nc_IT | Separation Power = 0.098521 | Variable Type : Float
B_Nu_Hi | Separation Power = 0.096390 | Variable Type : Double
B_PTREL | Separation Power = 0.095873 | Variable Type : Double
K_0_50_nc_asy_P | Separation Power = 0.093577 | Variable Type : Double
K_0_50_nc_asy_PZ | Separation Power = 0.093465 | Variable Type : Double
K_1_00_nc_IT | Separation Power = 0.087297 | Variable Type : Double
K_1_00_nc_asy_PT | Separation Power = 0.087242 | Variable Type : Float
K_0_50_IT | Separation Power = 0.087160 | Variable Type : Float
K_2_00_nc_IT | Separation Power = 0.083048 | Variable Type : Double
K_1_00_IT | Separation Power = 0.082813 | Variable Type : Double
K_1_50_nc_IT | Separation Power = 0.081919 | Variable Type : Double
K_2_00_nc_asy_PT | Separation Power = 0.081253 | Variable Type : Double
K_1_50_nc_asy_PT | Separation Power = 0.081229 | Variable Type : Double
B_TRKISOBDTLONG_D1MAX1_01 | Separation Power = 0.074959 | Variable Type : Double
mu_1_50_nc_asy_PT | Separation Power = 0.074841 | Variable Type : Double
mu_1_50_nc_IT | Separation Power = 0.074761 | Variable Type : Double
B_PE | Separation Power = 0.074309 | Variable Type : Double
K_1_50_IT | Separation Power = 0.074279 | Variable Type : Double
K_PT | Separation Power = 0.073998 | Variable Type : Float
B_P | Separation Power = 0.073929 | Variable Type : Double
B_PZ | Separation Power = 0.073318 | Variable Type : Double
K_1_00_nc_asy_P | Separation Power = 0.073159 | Variable Type : Double
K_1_00_nc_asy_PZ | Separation Power = 0.072948 | Variable Type : Double
K_2_00_IT | Separation Power = 0.072414 | Variable Type : Double
mu_1_00_nc_asy_PT | Separation Power = 0.072189 | Variable Type : Double
mu_1_00_nc_IT | Separation Power = 0.071418 | Variable Type : Double
mu_2_00_nc_IT | Separation Power = 0.070455 | Variable Type : Double
mu_1_00_nc_asy_P | Separation Power = 0.069527 | Variable Type : Double
mu_1_00_nc_asy_PZ | Separation Power = 0.069402 | Variable Type : Double
mu_2_00_nc_asy_PT | Separation Power = 0.069211 | Variable Type : Double
Mass_KKisotr_as_KK | Separation Power = 0.068613 | Variable Type : Double
mu_1_50_nc_asy_P | Separation Power = 0.068577 | Variable Type : Double
mu_1_50_nc_asy_PZ | Separation Power = 0.068329 | Variable Type : Double
B_TRKISOBDTLONG_01 | Separation Power = 0.064447 | Variable Type : Double
B_PT | Separation Power = 0.063956 | Variable Type : Float
mu_PT | Separation Power = 0.063860 | Variable Type : Double
mu_1_00_IT | Separation Power = 0.063699 | Variable Type : Double
mu_1_50_IT | Separation Power = 0.062490 | Variable Type : Double
mu_PE | Separation Power = 0.061880 | Variable Type : Double
mu_P | Separation Power = 0.061879 | Variable Type : Double
mu_PZ | Separation Power = 0.061449 | Variable Type : Double
mu_2_00_nc_asy_P | Separation Power = 0.060389 | Variable Type : Double
K_MIPCHI2DV_PV | Separation Power = 0.060215 | Variable Type : Double
K_IPCHI2_OWNPV | Separation Power = 0.060215 | Variable Type : Double
mu_2_00_nc_asy_PZ | Separation Power = 0.060053 | Variable Type : Double
B_BS2MUMUBDT_01 | Separation Power = 0.058896 | Variable Type : Double
mu_2_00_IT | Separation Power = 0.058341 | Variable Type : Double
K_1_50_nc_asy_P | Separation Power = 0.056458 | Variable Type : Double
K_1_50_nc_asy_PZ | Separation Power = 0.056083 | Variable Type : Double
min_IsoMin | Separation Power = 0.055487 | Variable Type : Float
B_mu_deltaPT | Separation Power = 0.055205 | Variable Type : Float
B_PT_m_1_5xmu_PT | Separation Power = 0.055205 | Variable Type : Float
K_0_50_nc_PZ | Separation Power = 0.050643 | Variable Type : Double
K_PAIR_M | Separation Power = 0.050360 | Variable Type : Float
K_2_00_cc_IT | Separation Power = 0.050091 | Variable Type : Double
K_2_00_cc_asy_PT | Separation Power = 0.049709 | Variable Type : Double
mu_0_50_nc_asy_PT | Separation Power = 0.049266 | Variable Type : Double
K_1_50_cc_IT | Separation Power = 0.049011 | Variable Type : Double
mu_0_50_nc_IT | Separation Power = 0.048969 | Variable Type : Double
K_1_50_cc_asy_PT | Separation Power = 0.048817 | Variable Type : Double
mu_0_50_nc_asy_P | Separation Power = 0.048013 | Variable Type : Double
mu_0_50_nc_asy_PZ | Separation Power = 0.047937 | Variable Type : Double
K_IsoMinBDT | Separation Power = 0.047702 | Variable Type : Double
K_1_00_cc_IT | Separation Power = 0.046919 | Variable Type : Double
K_1_00_cc_asy_PT | Separation Power = 0.046862 | Variable Type : Double
K_2_00_nc_asy_P | Separation Power = 0.046063 | Variable Type : Double
K_2_00_nc_asy_PZ | Separation Power = 0.045641 | Variable Type : Double
mu_ConeIso | Separation Power = 0.044880 | Variable Type : Double
K_ConeIso | Separation Power = 0.044880 | Variable Type : Double
min_ConeIso | Separation Power = 0.044880 | Variable Type : Float
mu_IsoMinBDT | Separation Power = 0.044659 | Variable Type : Double
mu_ORIVX_XERR | Separation Power = 0.044657 | Variable Type : Double
K_ORIVX_XERR | Separation Power = 0.044657 | Variable Type : Double
B_ENDVERTEX_XERR | Separation Power = 0.044657 | Variable Type : Double
mu_ProbNNk | Separation Power = 0.043672 | Variable Type : Double
mu_2_00_cc_asy_P | Separation Power = 0.043323 | Variable Type : Double
mu_2_00_cc_asy_PZ | Separation Power = 0.043237 | Variable Type : Double
B_TRKISOBDTLONG_D1MAX2_01 | Separation Power = 0.042452 | Variable Type : Double
K_PX | Separation Power = 0.042343 | Variable Type : Double
K_1_00_cc_asy_P | Separation Power = 0.042068 | Variable Type : Double
K_1_00_cc_asy_PZ | Separation Power = 0.041967 | Variable Type : Double
mu_0_50_IT | Separation Power = 0.041881 | Variable Type : Double
B_TRKISOBDTVELO_D1MAX1_01 | Separation Power = 0.041776 | Variable Type : Double
mu_1_50_cc_asy_P | Separation Power = 0.041477 | Variable Type : Double
mu_1_50_cc_asy_PZ | Separation Power = 0.041465 | Variable Type : Double
K_0_50_cc_IT | Separation Power = 0.041087 | Variable Type : Float
K_0_50_cc_asy_PT | Separation Power = 0.041080 | Variable Type : Double
K_MasshPi0 | Separation Power = 0.040783 | Variable Type : Float
K_1_00_nc_PZ | Separation Power = 0.040549 | Variable Type : Double
K_1_50_cc_asy_P | Separation Power = 0.039847 | Variable Type : Double
K_1_50_cc_asy_PZ | Separation Power = 0.039692 | Variable Type : Double
K_0_50_cc_asy_P | Separation Power = 0.039612 | Variable Type : Double
K_0_50_cc_asy_PZ | Separation Power = 0.039592 | Variable Type : Double
K_0_50_nc_PY | Separation Power = 0.038038 | Variable Type : Double
mu_2_00_cc_IT | Separation Power = 0.037850 | Variable Type : Double
mu_2_00_cc_asy_PT | Separation Power = 0.037514 | Variable Type : Double
mu_1_50_cc_asy_PT | Separation Power = 0.036714 | Variable Type : Double
mu_1_50_cc_IT | Separation Power = 0.036698 | Variable Type : Double
B_PX | Separation Power = 0.036560 | Variable Type : Double
K_2_00_cc_asy_P | Separation Power = 0.036222 | Variable Type : Double
K_2_00_cc_asy_PZ | Separation Power = 0.036050 | Variable Type : Double
mu_1_00_cc_asy_PZ | Separation Power = 0.035843 | Variable Type : Double
mu_1_00_cc_asy_P | Separation Power = 0.035782 | Variable Type : Double
B_TRKISOBDTVELO_01 | Separation Power = 0.035591 | Variable Type : Double
K_PY | Separation Power = 0.035448 | Variable Type : Double
K_ProbNNp | Separation Power = 0.035302 | Variable Type : Double
B_PY | Separation Power = 0.033050 | Variable Type : Double
mu_1_00_cc_asy_PT | Separation Power = 0.032805 | Variable Type : Double
mu_1_00_cc_IT | Separation Power = 0.032544 | Variable Type : Double
K_PE | Separation Power = 0.030900 | Variable Type : Double
K_P | Separation Power = 0.030899 | Variable Type : Double
K_PZ | Separation Power = 0.030251 | Variable Type : Double
mu_ORIVX_YERR | Separation Power = 0.029190 | Variable Type : Double
K_ORIVX_YERR | Separation Power = 0.029190 | Variable Type : Double
B_ENDVERTEX_YERR | Separation Power = 0.029190 | Variable Type : Double
K_IP_OWNPV | Separation Power = 0.028986 | Variable Type : Double
K_1_00_nc_PY | Separation Power = 0.027444 | Variable Type : Double
mu_0_50_cc_asy_PZ | Separation Power = 0.027327 | Variable Type : Double
mu_0_50_cc_asy_P | Separation Power = 0.027295 | Variable Type : Float
K_0_50_nc_PX | Separation Power = 0.027195 | Variable Type : Double
mu_1_00_nc_PZ | Separation Power = 0.026827 | Variable Type : Double
mu_0_50_cc_asy_PT | Separation Power = 0.026395 | Variable Type : Double
mu_PY | Separation Power = 0.026383 | Variable Type : Double
K_1_50_nc_PZ | Separation Power = 0.026260 | Variable Type : Double
mu_1_00_nc_PY | Separation Power = 0.026250 | Variable Type : Double
mu_0_50_cc_IT | Separation Power = 0.026241 | Variable Type : Double
mu_PX | Separation Power = 0.025531 | Variable Type : Double
mu_IP_OWNPV | Separation Power = 0.024891 | Variable Type : Double
K_NIsoTr_ANGLE | Separation Power = 0.024403 | Variable Type : Double
K_0_50_nc_deltaEta | Separation Power = 0.023660 | Variable Type : Double
mu_1_50_nc_PZ | Separation Power = 0.023316 | Variable Type : Double
B_TRKISOBDTLONG_D2MAX1_01 | Separation Power = 0.022780 | Variable Type : Double
B_TRKISOBDTLONG_D1MAX3_01 | Separation Power = 0.022389 | Variable Type : Double
mu_ORIVX_ZERR | Separation Power = 0.022244 | Variable Type : Double
K_ORIVX_ZERR | Separation Power = 0.022244 | Variable Type : Double
B_ENDVERTEX_ZERR | Separation Power = 0.022244 | Variable Type : Double
K_NIsoTr_FC | Separation Power = 0.021528 | Variable Type : Double
mu_1_00_nc_PX | Separation Power = 0.021364 | Variable Type : Double
B_TRKISOBDTVELO_D1MAX2_01 | Separation Power = 0.020385 | Variable Type : Double
mu_1_50_nc_PY | Separation Power = 0.020208 | Variable Type : Double
K_1_50_nc_PY | Separation Power = 0.019017 | Variable Type : Double
K_2_00_nc_PZ | Separation Power = 0.018387 | Variable Type : Double
mu_1_50_nc_PX | Separation Power = 0.018153 | Variable Type : Double
mu_2_00_nc_PZ | Separation Power = 0.017636 | Variable Type : Double
mu_ORIVX_CHI2 | Separation Power = 0.016344 | Variable Type : Double
K_ORIVX_CHI2 | Separation Power = 0.016344 | Variable Type : Double
B_ENDVERTEX_CHI2 | Separation Power = 0.016344 | Variable Type : Float
K_Pi0_PZ | Separation Power = 0.015941 | Variable Type : Float
K_Pi0_E | Separation Power = 0.015939 | Variable Type : Float
K_2_00_nc_PY | Separation Power = 0.015768 | Variable Type : Double
K_1_00_nc_deltaEta | Separation Power = 0.015687 | Variable Type : Double
nPVs | Separation Power = 0.015607 | Variable Type : Float
nPV | Separation Power = 0.015607 | Variable Type : Float
mu_0_50_nc_PY | Separation Power = 0.015462 | Variable Type : Double
K_1_00_nc_PX | Separation Power = 0.015151 | Variable Type : Double
mu_2_00_nc_PY | Separation Power = 0.014814 | Variable Type : Double
mu_MIPCHI2DV_PV | Separation Power = 0.014228 | Variable Type : Double
mu_IPCHI2_OWNPV | Separation Power = 0.014228 | Variable Type : Double
K_1_00_cc_PZ | Separation Power = 0.014210 | Variable Type : Double
mu_2_00_nc_PX | Separation Power = 0.013909 | Variable Type : Double
mu_ProbNNpi | Separation Power = 0.013806 | Variable Type : Double
K_1_50_nc_deltaEta | Separation Power = 0.013678 | Variable Type : Double
mu_0_50_nc_PX | Separation Power = 0.013428 | Variable Type : Double
B_TRKISOBDTVELO_D2MAX1_01 | Separation Power = 0.013418 | Variable Type : Double
mu_0_50_nc_PZ | Separation Power = 0.013122 | Variable Type : Double
K_0_50_cc_deltaEta | Separation Power = 0.013002 | Variable Type : Float
B_TRKISOBDTVELO_D1MAX3_01 | Separation Power = 0.012837 | Variable Type : Double
K_2_00_nc_deltaEta | Separation Power = 0.012684 | Variable Type : Double
B_TRKISOBDTLONG_D2MAX2_01 | Separation Power = 0.012668 | Variable Type : Double
mu_0_50_nc_deltaEta | Separation Power = 0.012388 | Variable Type : Double
K_pi0_mult | Separation Power = 0.012318 | Variable Type : Float
K_0_50_cc_PZ | Separation Power = 0.012065 | Variable Type : Double
B_BS2MUMUBDT_INPUT_MINIPS_01 | Separation Power = 0.012033 | Variable Type : Double
mu_1_00_nc_deltaEta | Separation Power = 0.011631 | Variable Type : Double
K_1_50_cc_PZ | Separation Power = 0.011296 | Variable Type : Double
B_cosTheta1_star | Separation Power = 0.010918 | Variable Type : Float
B_cosTheta2_star | Separation Power = 0.010914 | Variable Type : Double
K_ProbNNpi | Separation Power = 0.010434 | Variable Type : Double
mu_1_50_nc_deltaEta | Separation Power = 0.010421 | Variable Type : Double
nTracks | Separation Power = 0.010343 | Variable Type : Float
K_1_50_nc_PX | Separation Power = 0.010275 | Variable Type : Double
mu_2_00_nc_deltaEta | Separation Power = 0.010165 | Variable Type : Double
K_2_00_nc_PX | Separation Power = 0.010073 | Variable Type : Double
K_Pi0_PY | Separation Power = 0.009941 | Variable Type : Float
nSPDHits | Separation Power = 0.009898 | Variable Type : Float
K_Pi0_PX | Separation Power = 0.009192 | Variable Type : Float
mu_NIsoTr_ANGLE | Separation Power = 0.008872 | Variable Type : Double
mu_ProbNNp | Separation Power = 0.008837 | Variable Type : Double
K_1_00_cc_deltaEta | Separation Power = 0.008749 | Variable Type : Double
K_0_50_cc_PY | Separation Power = 0.008603 | Variable Type : Double
K_0_50_cc_PX | Separation Power = 0.008315 | Variable Type : Double
mu_ProbNNmu | Separation Power = 0.008287 | Variable Type : Double
K_1_00_cc_PY | Separation Power = 0.007700 | Variable Type : Double
mu_PAIR_M | Separation Power = 0.007655 | Variable Type : Float
B_BS2MUMUBDT_INPUT_IPS_01 | Separation Power = 0.007535 | Variable Type : Double
B_TRKISOBDTVELO_D2MAX2_01 | Separation Power = 0.007451 | Variable Type : Double
K_Pi0_DeltaR | Separation Power = 0.007303 | Variable Type : Float
K_Pi0Ph1_CL | Separation Power = 0.007303 | Variable Type : Float
K_Pi0Ph2_CL | Separation Power = 0.007303 | Variable Type : Float
K_Pi0_M | Separation Power = 0.007303 | Variable Type : Float
B_TRKISOBDTLONG_D2MAX3_01 | Separation Power = 0.007288 | Variable Type : Double
K_NIsoTr_DOCA | Separation Power = 0.006854 | Variable Type : Double
B_IPCHI2_OWNPV | Separation Power = 0.006761 | Variable Type : Double
mu_1_50_cc_deltaEta | Separation Power = 0.006759 | Variable Type : Double
K_2_00_cc_PZ | Separation Power = 0.006745 | Variable Type : Double
mu_2_00_cc_deltaEta | Separation Power = 0.006722 | Variable Type : Double
Mass_MuMuisotr_as_mumu | Separation Power = 0.006552 | Variable Type : Double
K_1_50_cc_deltaEta | Separation Power = 0.006467 | Variable Type : Double
B_TAUCHI2 | Separation Power = 0.006453 | Variable Type : Double
mu_NIsoTr_FC | Separation Power = 0.006392 | Variable Type : Double
B_FDCHI2_OWNPV | Separation Power = 0.006389 | Variable Type : Double
K_1_50_cc_PY | Separation Power = 0.005933 | Variable Type : Double
mu_1_00_cc_deltaEta | Separation Power = 0.005893 | Variable Type : Double
mu_0_50_cc_deltaEta | Separation Power = 0.005811 | Variable Type : Double
K_1_00_cc_PX | Separation Power = 0.005772 | Variable Type : Double
B_FD_S | Separation Power = 0.005660 | Variable Type : Float
K_ProbNNghost | Separation Power = 0.005623 | Variable Type : Double
B_TRKISOBDTVELO_D2MAX3_01 | Separation Power = 0.005549 | Variable Type : Double
K_2_00_cc_deltaEta | Separation Power = 0.005284 | Variable Type : Double
mu_1_00_cc_PX | Separation Power = 0.005193 | Variable Type : Double
B_FlightLength | Separation Power = 0.005164 | Variable Type : Float
B_FlightDirMag | Separation Power = 0.005163 | Variable Type : Double
B_FD_OWNPV | Separation Power = 0.005163 | Variable Type : Double
mu_1_50_cc_PX | Separation Power = 0.004760 | Variable Type : Double
mu_NIsoTr_DOCA | Separation Power = 0.004203 | Variable Type : Double
B_DIRA_OWNPV | Separation Power = 0.004081 | Variable Type : Float
mu_1_00_cc_PY | Separation Power = 0.003904 | Variable Type : Double
K_1_50_cc_PX | Separation Power = 0.003839 | Variable Type : Double
mu_2_00_cc_PX | Separation Power = 0.003437 | Variable Type : Double
mu_1_00_nc_asy_PY | Separation Power = 0.003375 | Variable Type : Double
B_IP_OWNPV | Separation Power = 0.003366 | Variable Type : Double
mu_1_50_cc_PY | Separation Power = 0.003296 | Variable Type : Double
mu_TRACK_Key | Separation Power = 0.003200 | Variable Type : Float
K_2_00_cc_PX | Separation Power = 0.003026 | Variable Type : Double
B_AllIP | Separation Power = 0.002973 | Variable Type : Float
mu_1_50_cc_PZ | Separation Power = 0.002913 | Variable Type : Double
mu_TRACK_GhostProb | Separation Power = 0.002681 | Variable Type : Double
K_IsoMinBDT_m_mu_IsoMinBDT | Separation Power = 0.002555 | Variable Type : Float
K_NIsoTr_ProbNNk | Separation Power = 0.002327 | Variable Type : Double
mu_0_50_cc_PX | Separation Power = 0.002325 | Variable Type : Double
mu_2_00_cc_PZ | Separation Power = 0.002303 | Variable Type : Double
mu_ProbNNghost | Separation Power = 0.002288 | Variable Type : Double
K_ProbNNk | Separation Power = 0.002281 | Variable Type : Double
mu_0_50_cc_PY | Separation Power = 0.002148 | Variable Type : Double
B_ETA | Separation Power = 0.002057 | Variable Type : Float
K_NIsoTr_ProbNNpi | Separation Power = 0.001908 | Variable Type : Double
K_TRACK_GhostProb | Separation Power = 0.001880 | Variable Type : Double
mu_NIsoTr_ProbNNk | Separation Power = 0.001782 | Variable Type : Double
PVNTRACKS | Separation Power = 0.001716 | Variable Type : Float
PVNDOF | Separation Power = 0.001716 | Variable Type : Float
K_TRACK_CHI2NDOF | Separation Power = 0.001713 | Variable Type : Double
PVCHI2 | Separation Power = 0.001674 | Variable Type : Float
PVYERR | Separation Power = 0.001643 | Variable Type : Float
K_TRACK_PCHI2 | Separation Power = 0.001635 | Variable Type : Double
PVXERR | Separation Power = 0.001621 | Variable Type : Float
mu_NIsoTr_ProbNNpi | Separation Power = 0.001492 | Variable Type : Double
mu_NIsoTr_SVDIS | Separation Power = 0.001492 | Variable Type : Double
mu_ORIVX_Y | Separation Power = 0.001459 | Variable Type : Double
K_ORIVX_Y | Separation Power = 0.001459 | Variable Type : Double
B_ENDVERTEX_Y | Separation Power = 0.001459 | Variable Type : Double
PVZERR | Separation Power = 0.001419 | Variable Type : Float
K_NIsoTr_ProbNNp | Separation Power = 0.001384 | Variable Type : Double
mu_ORIVX_COV_ | Separation Power = 0.001304 | Variable Type : Float
K_ORIVX_COV_ | Separation Power = 0.001304 | Variable Type : Float
B_ENDVERTEX_COV_ | Separation Power = 0.001304 | Variable Type : Float
B_AllDIRA | Separation Power = 0.001303 | Variable Type : Float
mu_ORIVX_X | Separation Power = 0.001292 | Variable Type : Double
K_ORIVX_X | Separation Power = 0.001292 | Variable Type : Double
B_ENDVERTEX_X | Separation Power = 0.001292 | Variable Type : Double
B_AllIPchi2 | Separation Power = 0.001240 | Variable Type : Float
mu_NIsoTr_ProbNNp | Separation Power = 0.001234 | Variable Type : Double
K_TRACK_Key | Separation Power = 0.001196 | Variable Type : Float
mu_NIsoTr_PX | Separation Power = 0.001156 | Variable Type : Double
B_FlightAngle | Separation Power = 0.001129 | Variable Type : Float
mu_1_00_cc_PZ | Separation Power = 0.001124 | Variable Type : Double
mu_NIsoTr_PVDIS | Separation Power = 0.001089 | Variable Type : Double
K_NIsoTr_VTXX | Separation Power = 0.000987 | Variable Type : Double
mu_NIsoTr_VTXZ | Separation Power = 0.000900 | Variable Type : Double
K_TRACK_MatchCHI2 | Separation Power = 0.000842 | Variable Type : Double
B_OWNPV_CHI2 | Separation Power = 0.000830 | Variable Type : Double
mu_2_00_cc_PY | Separation Power = 0.000813 | Variable Type : Double
K_NIsoTr_PY | Separation Power = 0.000722 | Variable Type : Double
mu_ProbNNe | Separation Power = 0.000711 | Variable Type : Double
K_NIsoTr_PX | Separation Power = 0.000691 | Variable Type : Double
B_OWNPV_NDOF | Separation Power = 0.000678 | Variable Type : Float
K_NIsoTr_VTXY | Separation Power = 0.000675 | Variable Type : Double
mu_NIsoTr_ProbNNe | Separation Power = 0.000632 | Variable Type : Double
mu_NIsoTr_VTXY | Separation Power = 0.000572 | Variable Type : Double
K_NIsoTr_ProbNNe | Separation Power = 0.000552 | Variable Type : Double
mu_NIsoTr_ProbNNghost | Separation Power = 0.000491 | Variable Type : Double
B_OWNPV_YERR | Separation Power = 0.000483 | Variable Type : Double
mu_NIsoTr_VTXX | Separation Power = 0.000481 | Variable Type : Double
K_2_00_cc_PY | Separation Power = 0.000475 | Variable Type : Double
B_OWNPV_XERR | Separation Power = 0.000471 | Variable Type : Double
mu_TRACK_PCHI2 | Separation Power = 0.000451 | Variable Type : Double
K_NIsoTr_ProbNNghost | Separation Power = 0.000426 | Variable Type : Double
mu_NIsoTr_PT | Separation Power = 0.000409 | Variable Type : Double
mu_TRACK_MatchCHI2 | Separation Power = 0.000400 | Variable Type : Double
K_NIsoTr_SVDIS | Separation Power = 0.000400 | Variable Type : Double
K_NIsoTr_PT | Separation Power = 0.000378 | Variable Type : Double
K_ProbNNe | Separation Power = 0.000369 | Variable Type : Double
K_0_50_nc_asy_PX | Separation Power = 0.000363 | Variable Type : Double
mu_TRACK_CHI2NDOF | Separation Power = 0.000357 | Variable Type : Double
mu_ORIVX_Z | Separation Power = 0.000356 | Variable Type : Double
K_ORIVX_Z | Separation Power = 0.000356 | Variable Type : Double
B_ENDVERTEX_Z | Separation Power = 0.000356 | Variable Type : Double
B_OWNPV_ZERR | Separation Power = 0.000344 | Variable Type : Double
B_OWNPV_Z | Separation Power = 0.000337 | Variable Type : Double
K_NIsoTr_PVDIS | Separation Power = 0.000331 | Variable Type : Double
B_OWNPV_X | Separation Power = 0.000327 | Variable Type : Double
mu_0_50_cc_PZ | Separation Power = 0.000299 | Variable Type : Double
B_OWNPV_Y | Separation Power = 0.000276 | Variable Type : Double
PVY | Separation Power = 0.000254 | Variable Type : Float
PVX | Separation Power = 0.000245 | Variable Type : Float
mu_NIsoTr_PY | Separation Power = 0.000228 | Variable Type : Double
mu_PAIR_IPchi2 | Separation Power = 0.000211 | Variable Type : Double
K_0_50_nc_asy_PY | Separation Power = 0.000192 | Variable Type : Double
PVZ | Separation Power = 0.000154 | Variable Type : Float
K_NIsoTr_PZ | Separation Power = 0.000145 | Variable Type : Double
mu_NIsoTr_PZ | Separation Power = 0.000142 | Variable Type : Double
K_NIsoTr_PE | Separation Power = 0.000140 | Variable Type : Double
K_NIsoTr_P | Separation Power = 0.000140 | Variable Type : Double
mu_NIsoTr_PE | Separation Power = 0.000139 | Variable Type : Double
mu_NIsoTr_P | Separation Power = 0.000139 | Variable Type : Double
K_PAIR_IPchi2 | Separation Power = 0.000135 | Variable Type : Double
K_0_50_cc_asy_PX | Separation Power = 0.000127 | Variable Type : Double
mu_2_00_nc_asy_PX | Separation Power = 0.000123 | Variable Type : Double
K_2_00_nc_asy_PX | Separation Power = 0.000114 | Variable Type : Double
K_1_50_nc_asy_PX | Separation Power = 0.000111 | Variable Type : Double
mu_1_00_nc_asy_PX | Separation Power = 0.000110 | Variable Type : Double
mu_1_00_cc_asy_PY | Separation Power = 0.000102 | Variable Type : Double
mu_1_50_nc_asy_PY | Separation Power = 0.000098 | Variable Type : Double
K_2_00_nc_asy_PY | Separation Power = 0.000096 | Variable Type : Double
mu_0_50_nc_asy_PY | Separation Power = 0.000094 | Variable Type : Double
K_1_50_cc_asy_PX | Separation Power = 0.000091 | Variable Type : Double
mu_1_50_cc_asy_PY | Separation Power = 0.000087 | Variable Type : Double
mu_2_00_cc_asy_PX | Separation Power = 0.000086 | Variable Type : Double
K_NIsoTr_VTXZ | Separation Power = 0.000084 | Variable Type : Double
K_1_00_nc_asy_PX | Separation Power = 0.000084 | Variable Type : Double
K_1_50_cc_asy_PY | Separation Power = 0.000083 | Variable Type : Double
mu_0_50_nc_asy_PX | Separation Power = 0.000079 | Variable Type : Double
K_0_50_cc_asy_PY | Separation Power = 0.000067 | Variable Type : Double
K_NIsoTr_ProbNNmu | Separation Power = 0.000067 | Variable Type : Double
K_2_00_cc_asy_PY | Separation Power = 0.000062 | Variable Type : Double
mu_NIsoTr_ProbNNmu | Separation Power = 0.000057 | Variable Type : Double
mu_2_00_nc_asy_PY | Separation Power = 0.000056 | Variable Type : Double
mu_0_50_cc_asy_PY | Separation Power = 0.000052 | Variable Type : Double
B_OWNPV_COV_ | Separation Power = 0.000048 | Variable Type : Float
mu_1_50_nc_asy_PX | Separation Power = 0.000046 | Variable Type : Double
K_1_00_cc_asy_PY | Separation Power = 0.000044 | Variable Type : Double
K_1_50_nc_asy_PY | Separation Power = 0.000044 | Variable Type : Double
K_1_00_nc_asy_PY | Separation Power = 0.000043 | Variable Type : Double
mu_0_50_cc_asy_PX | Separation Power = 0.000037 | Variable Type : Double
K_2_00_cc_asy_PX | Separation Power = 0.000030 | Variable Type : Double
B_TAU | Separation Power = 0.000029 | Variable Type : Double
B_TAUERR | Separation Power = 0.000029 | Variable Type : Double
mu_2_00_cc_asy_PY | Separation Power = 0.000029 | Variable Type : Double
mu_1_50_cc_asy_PX | Separation Power = 0.000027 | Variable Type : Double
K_NIsoTr_M | Separation Power = 0.000024 | Variable Type : Double
mu_1_00_cc_asy_PX | Separation Power = 0.000024 | Variable Type : Double
mu_NIsoTr_M | Separation Power = 0.000021 | Variable Type : Double
K_ProbNNmu | Separation Power = 0.000019 | Variable Type : Double
K_1_00_cc_asy_PX | Separation Power = 0.000018 | Variable Type : Double
(null) | Separation Power = 0.000000 | Variable Type : (null)
(null) | Separation Power = 0.000000 | Variable Type : (null)
(null) | Separation Power = 0.000000 | Variable Type : (null)
(null) | Separation Power = 0.000000 | Variable Type : (null)
(null) | Separation Power = 0.000000 | Variable Type : (null)
(null) | Separation Power = 0.000000 | Variable Type : (null)
(null) | Separation Power = 0.000000 | Variable Type : (null)
(null) | Separation Power = 0.000000 | Variable Type : (null)
(null) | Separation Power = 0.000000 | Variable Type : (null)
(null) | Separation Power = 0.000000 | Variable Type : (null)
(null) | Separation Power = 0.000000 | Variable Type : (null)
(null) | Separation Power = 0.000000 | Variable Type : (null)
(null) | Separation Power = 0.000000 | Variable Type : (null)
(null) | Separation Power = 0.000000 | Variable Type : (null)
(null) | Separation Power = 0.000000 | Variable Type : (null)
(null) | Separation Power = 0.000000 | Variable Type : (null)
(null) | Separation Power = 0.000000 | Variable Type : (null)
(null) | Separation Power = 0.000000 | Variable Type : (null)
(null) | Separation Power = 0.000000 | Variable Type : (null)
(null) | Separation Power = 0.000000 | Variable Type : (null)
(null) | Separation Power = 0.000000 | Variable Type : (null)
(null) | Separation Power = 0.000000 | Variable Type : (null)
(null) | Separation Power = 0.000000 | Variable Type : (null)
(null) | Separation Power = 0.000000 | Variable Type : (null)
(null) | Separation Power = 0.000000 | Variable Type : (null)
(null) | Separation Power = 0.000000 | Variable Type : (null)
(null) | Separation Power = 0.000000 | Variable Type : (null)
(null) | Separation Power = 0.000000 | Variable Type : (null)
(null) | Separation Power = 0.000000 | Variable Type : (null)
(null) | Separation Power = 0.000000 | Variable Type : (null)
(null) | Separation Power = 0.000000 | Variable Type : (null)
(null) | Separation Power = 0.000000 | Variable Type : (null)
(null) | Separation Power = 0.000000 | Variable Type : (null)
(null) | Separation Power = 0.000000 | Variable Type : (null)
(null) | Separation Power = 0.000000 | Variable Type : (null)
(null) | Separation Power = 0.000000 | Variable Type : (null)
(null) | Separation Power = 0.000000 | Variable Type : (null)
(null) | Separation Power = 0.000000 | Variable Type : (null)
(null) | Separation Power = 0.000000 | Variable Type : (null)
(null) | Separation Power = 0.000000 | Variable Type : (null)
(null) | Separation Power = 0.000000 | Variable Type : (null)
(null) | Separation Power = 0.000000 | Variable Type : (null)
(null) | Separation Power = 0.000000 | Variable Type : (null)
(null) | Separation Power = 0.000000 | Variable Type : (null)
(null) | Separation Power = 0.000000 | Variable Type : (null)
(null) | Separation Power = 0.000000 | Variable Type : (null)
(null) | Separation Power = 0.000000 | Variable Type : (null)
(null) | Separation Power = 0.000000 | Variable Type : (null)
(null) | Separation Power = 0.000000 | Variable Type : (null)
(null) | Separation Power = 0.000000 | Variable Type : (null)
(null) | Separation Power = 0.000000 | Variable Type : (null)
(null) | Separation Power = 0.000000 | Variable Type : (null)
(null) | Separation Power = 0.000000 | Variable Type : (null)
(null) | Separation Power = 0.000000 | Variable Type : (null)
(null) | Separation Power = 0.000000 | Variable Type : (null)
(null) | Separation Power = 0.000000 | Variable Type : (null)
(null) | Separation Power = 0.000000 | Variable Type : (null)
(null) | Separation Power = 0.000000 | Variable Type : (null)
(null) | Separation Power = 0.000000 | Variable Type : (null)
(null) | Separation Power = 0.000000 | Variable Type : (null)
(null) | Separation Power = 0.000000 | Variable Type : (null)
(null) | Separation Power = 0.000000 | Variable Type : (null)
(null) | Separation Power = 0.000000 | Variable Type : (null)
(null) | Separation Power = 0.000000 | Variable Type : (null)
(null) | Separation Power = 0.000000 | Variable Type : (null)
(null) | Separation Power = 0.000000 | Variable Type : (null)
(null) | Separation Power = 0.000000 | Variable Type : (null)
(null) | Separation Power = 0.000000 | Variable Type : (null)
(null) | Separation Power = 0.000000 | Variable Type : (null)
(null) | Separation Power = 0.000000 | Variable Type : (null)
(null) | Separation Power = 0.000000 | Variable Type : (null)
(null) | Separation Power = 0.000000 | Variable Type : (null)
(null) | Separation Power = 0.000000 | Variable Type : (null)
(null) | Separation Power = 0.000000 | Variable Type : (null)
(null) | Separation Power = 0.000000 | Variable Type : (null)
(null) | Separation Power = 0.000000 | Variable Type : (null)
(null) | Separation Power = 0.000000 | Variable Type : (null)
(null) | Separation Power = 0.000000 | Variable Type : (null)
(null) | Separation Power = 0.000000 | Variable Type : (null)
(null) | Separation Power = 0.000000 | Variable Type : (null)
(null) | Separation Power = 0.000000 | Variable Type : (null)
(null) | Separation Power = 0.000000 | Variable Type : (null)
(null) | Separation Power = 0.000000 | Variable Type : (null)
(null) | Separation Power = 0.000000 | Variable Type : (null)
(null) | Separation Power = 0.000000 | Variable Type : (null)
(null) | Separation Power = 0.000000 | Variable Type : (null)
(null) | Separation Power = 0.000000 | Variable Type : (null)
(null) | Separation Power = 0.000000 | Variable Type : (null)
(null) | Separation Power = 0.000000 | Variable Type : (null)
(null) | Separation Power = 0.000000 | Variable Type : (null)
(null) | Separation Power = 0.000000 | Variable Type : (null)
(null) | Separation Power = 0.000000 | Variable Type : (null)
(null) | Separation Power = 0.000000 | Variable Type : (null)
(null) | Separation Power = 0.000000 | Variable Type : (null)
(null) | Separation Power = 0.000000 | Variable Type : (null)
(null) | Separation Power = 0.000000 | Variable Type : (null)
(null) | Separation Power = 0.000000 | Variable Type : (null)
(null) | Separation Power = 0.000000 | Variable Type : (null)
(null) | Separation Power = 0.000000 | Variable Type : (null)
(null) | Separation Power = 0.000000 | Variable Type : (null)
(null) | Separation Power = 0.000000 | Variable Type : (null)
(null) | Separation Power = 0.000000 | Variable Type : (null)
(null) | Separation Power = 0.000000 | Variable Type : (null)
(null) | Separation Power = 0.000000 | Variable Type : (null)
(null) | Separation Power = 0.000000 | Variable Type : (null)
(null) | Separation Power = 0.000000 | Variable Type : (null)
(null) | Separation Power = 0.000000 | Variable Type : (null)
(null) | Separation Power = 0.000000 | Variable Type : (null)
(null) | Separation Power = 0.000000 | Variable Type : (null)
(null) | Separation Power = 0.000000 | Variable Type : (null)
(null) | Separation Power = 0.000000 | Variable Type : (null)
(null) | Separation Power = 0.000000 | Variable Type : (null)
(null) | Separation Power = 0.000000 | Variable Type : (null)
(null) | Separation Power = 0.000000 | Variable Type : (null)
(null) | Separation Power = 0.000000 | Variable Type : (null)
(null) | Separation Power = 0.000000 | Variable Type : (null)
(null) | Separation Power = 0.000000 | Variable Type : (null)
(null) | Separation Power = 0.000000 | Variable Type : (null)
(null) | Separation Power = 0.000000 | Variable Type : (null)
(null) | Separation Power = 0.000000 | Variable Type : (null)
(null) | Separation Power = 0.000000 | Variable Type : (null)
(null) | Separation Power = 0.000000 | Variable Type : (null)
(null) | Separation Power = 0.000000 | Variable Type : (null)
(null) | Separation Power = 0.000000 | Variable Type : (null)
(null) | Separation Power = 0.000000 | Variable Type : (null)
(null) | Separation Power = 0.000000 | Variable Type : (null)
(null) | Separation Power = 0.000000 | Variable Type : (null)
(null) | Separation Power = 0.000000 | Variable Type : (null)
(null) | Separation Power = 0.000000 | Variable Type : (null)
(null) | Separation Power = 0.000000 | Variable Type : (null)
(null) | Separation Power = 0.000000 | Variable Type : (null)
(null) | Separation Power = 0.000000 | Variable Type : (null)
(null) | Separation Power = 0.000000 | Variable Type : (null)
(null) | Separation Power = 0.000000 | Variable Type : (null)
(null) | Separation Power = 0.000000 | Variable Type : (null)
(null) | Separation Power = 0.000000 | Variable Type : (null)
(null) | Separation Power = 0.000000 | Variable Type : (null)
(null) | Separation Power = 0.000000 | Variable Type : (null)
(null) | Separation Power = 0.000000 | Variable Type : (null)
(null) | Separation Power = 0.000000 | Variable Type : (null)
(null) | Separation Power = 0.000000 | Variable Type : (null)
(null) | Separation Power = 0.000000 | Variable Type : (null)
(null) | Separation Power = 0.000000 | Variable Type : (null)
 | Separation Power = 0.000000 | Variable Type : (null)
(null) | Separation Power = 0.000000 | Variable Type : (null)
(null) | Separation Power = 0.000000 | Variable Type : (null)
(null) | Separation Power = 0.000000 | Variable Type : (null)
(null) | Separation Power = 0.000000 | Variable Type : (null)
(null) | Separation Power = 0.000000 | Variable Type : (null)
(null) | Separation Power = 0.000000 | Variable Type : (null)
(null) | Separation Power = 0.000000 | Variable Type : (null)
(null) | Separation Power = 0.000000 | Variable Type : (null)
(null) | Separation Power = 0.000000 | Variable Type : (null)
(null) | Separation Power = 0.000000 | Variable Type : (null)
(null) | Separation Power = 0.000000 | Variable Type : (null)
(null) | Separation Power = 0.000000 | Variable Type : (null)
(null) | Separation Power = 0.000000 | Variable Type : (null)
(null) | Separation Power = 0.000000 | Variable Type : (null)
(null) | Separation Power = 0.000000 | Variable Type : (null)
(null) | Separation Power = 0.000000 | Variable Type : (null)
(null) | Separation Power = 0.000000 | Variable Type : (null)
(null) | Separation Power = 0.000000 | Variable Type : (null)
(null) | Separation Power = 0.000000 | Variable Type : (null)
(null) | Separation Power = 0.000000 | Variable Type : (null)
(null) | Separation Power = 0.000000 | Variable Type : (null)
(null) | Separation Power = 0.000000 | Variable Type : (null)
(null) | Separation Power = 0.000000 | Variable Type : (null)
(null) | Separation Power = 0.000000 | Variable Type : (null)
(null) | Separation Power = 0.000000 | Variable Type : (null)
(null) | Separation Power = 0.000000 | Variable Type : (null)
(null) | Separation Power = 0.000000 | Variable Type : (null)
(null) | Separation Power = 0.000000 | Variable Type : (null)
(null) | Separation Power = 0.000000 | Variable Type : (null)
(null) | Separation Power = 0.000000 | Variable Type : (null)
(null) | Separation Power = 0.000000 | Variable Type : (null)
(null) | Separation Power = 0.000000 | Variable Type : (null)
(null) | Separation Power = 0.000000 | Variable Type : (null)
(null) | Separation Power = 0.000000 | Variable Type : (null)
(null) | Separation Power = 0.000000 | Variable Type : (null)
(null) | Separation Power = 0.000000 | Variable Type : (null)
(null) | Separation Power = 0.000000 | Variable Type : (null)
(null) | Separation Power = 0.000000 | Variable Type : (null)
(null) | Separation Power = 0.000000 | Variable Type : (null)
(null) | Separation Power = 0.000000 | Variable Type : (null)
(null) | Separation Power = 0.000000 | Variable Type : (null)
(null) | Separation Power = 0.000000 | Variable Type : (null)
(null) | Separation Power = 0.000000 | Variable Type : (null)
(null) | Separation Power = 0.000000 | Variable Type : (null)
(null) | Separation Power = 0.000000 | Variable Type : (null)
(null) | Separation Power = 0.000000 | Variable Type : (null)
(null) | Separation Power = 0.000000 | Variable Type : (null)
(null) | Separation Power = 0.000000 | Variable Type : (null)
(null) | Separation Power = 0.000000 | Variable Type : (null)
(null) | Separation Power = 0.000000 | Variable Type : (null)
(null) | Separation Power = 0.000000 | Variable Type : (null)
(null) | Separation Power = 0.000000 | Variable Type : (null)
(null) | Separation Power = 0.000000 | Variable Type : (null)
(null) | Separation Power = 0.000000 | Variable Type : (null)
(null) | Separation Power = 0.000000 | Variable Type : (null)
(null) | Separation Power = 0.000000 | Variable Type : (null)
(null) | Separation Power = 0.000000 | Variable Type : (null)
(null) | Separation Power = 0.000000 | Variable Type : (null)
(null) | Separation Power = 0.000000 | Variable Type : (null)
(null) | Separation Power = 0.000000 | Variable Type : (null)
(null) | Separation Power = 0.000000 | Variable Type : (null)
(null) | Separation Power = 0.000000 | Variable Type : (null)
(null) | Separation Power = 0.000000 | Variable Type : (null)
(null) | Separation Power = 0.000000 | Variable Type : (null)
