runNumber | Separation Power = 0.232634 | Variable Type : Float
B_M | Separation Power = 0.172960 | Variable Type : Double
Mass_Kmu_as_mumu | Separation Power = 0.170699 | Variable Type : Double
K_0_50_nc_asy_PT | Separation Power = 0.081533 | Variable Type : Double
K_0_50_nc_IT | Separation Power = 0.081288 | Variable Type : Float
K_0_50_nc_asy_P | Separation Power = 0.077947 | Variable Type : Double
K_0_50_nc_asy_PZ | Separation Power = 0.077846 | Variable Type : Double
K_1_00_nc_asy_PT | Separation Power = 0.067889 | Variable Type : Float
K_1_00_nc_IT | Separation Power = 0.067757 | Variable Type : Double
B_Nu_Lo | Separation Power = 0.062429 | Variable Type : Double
K_0_50_IT | Separation Power = 0.061907 | Variable Type : Float
K_1_50_nc_IT | Separation Power = 0.059637 | Variable Type : Double
K_2_00_nc_IT | Separation Power = 0.059429 | Variable Type : Double
K_1_50_nc_asy_PT | Separation Power = 0.059290 | Variable Type : Double
K_1_00_nc_asy_P | Separation Power = 0.058032 | Variable Type : Double
K_1_00_nc_asy_PZ | Separation Power = 0.057859 | Variable Type : Double
K_2_00_nc_asy_PT | Separation Power = 0.057747 | Variable Type : Double
B_Nu_Hi | Separation Power = 0.057603 | Variable Type : Double
K_1_00_IT | Separation Power = 0.054885 | Variable Type : Double
K_1_50_IT | Separation Power = 0.047436 | Variable Type : Double
B_PTREL | Separation Power = 0.046133 | Variable Type : Double
K_2_00_IT | Separation Power = 0.045828 | Variable Type : Double
K_PT | Separation Power = 0.045560 | Variable Type : Float
K_1_50_nc_asy_P | Separation Power = 0.042280 | Variable Type : Double
K_1_50_nc_asy_PZ | Separation Power = 0.042040 | Variable Type : Double
mu_1_00_nc_asy_PT | Separation Power = 0.041652 | Variable Type : Double
mu_1_00_nc_IT | Separation Power = 0.041122 | Variable Type : Double
mu_1_50_nc_asy_PT | Separation Power = 0.041072 | Variable Type : Double
mu_1_50_nc_IT | Separation Power = 0.040861 | Variable Type : Double
K_0_50_nc_PZ | Separation Power = 0.040309 | Variable Type : Double
mu_1_00_nc_asy_P | Separation Power = 0.039581 | Variable Type : Double
mu_1_00_nc_asy_PZ | Separation Power = 0.039502 | Variable Type : Double
mu_2_00_nc_IT | Separation Power = 0.038228 | Variable Type : Double
Mass_KMuMuisotr_as_KJpsi_constr | Separation Power = 0.038150 | Variable Type : Double
mu_1_50_nc_asy_P | Separation Power = 0.037016 | Variable Type : Double
mu_1_50_nc_asy_PZ | Separation Power = 0.036893 | Variable Type : Double
mu_2_00_nc_asy_PT | Separation Power = 0.036792 | Variable Type : Double
B_TRKISOBDTLONG_D1MAX1_01 | Separation Power = 0.033766 | Variable Type : Double
K_2_00_nc_asy_P | Separation Power = 0.033494 | Variable Type : Double
B_PE | Separation Power = 0.033447 | Variable Type : Double
B_P | Separation Power = 0.033279 | Variable Type : Double
K_2_00_nc_asy_PZ | Separation Power = 0.033204 | Variable Type : Double
B_PZ | Separation Power = 0.032971 | Variable Type : Double
K_1_00_nc_PZ | Separation Power = 0.032582 | Variable Type : Double
K_0_50_nc_PY | Separation Power = 0.032174 | Variable Type : Double
mu_2_00_nc_asy_P | Separation Power = 0.030842 | Variable Type : Double
mu_1_00_IT | Separation Power = 0.030834 | Variable Type : Double
mu_2_00_nc_asy_PZ | Separation Power = 0.030709 | Variable Type : Double
mu_1_50_IT | Separation Power = 0.028938 | Variable Type : Double
B_TRKISOBDTLONG_01 | Separation Power = 0.028672 | Variable Type : Double
min_IsoMin | Separation Power = 0.028118 | Variable Type : Float
K_2_00_cc_asy_PT | Separation Power = 0.027831 | Variable Type : Double
K_2_00_cc_IT | Separation Power = 0.027801 | Variable Type : Double
B_BS2MUMUBDT_01 | Separation Power = 0.027565 | Variable Type : Double
K_1_50_cc_asy_PT | Separation Power = 0.027029 | Variable Type : Double
K_1_50_cc_IT | Separation Power = 0.026940 | Variable Type : Double
B_PT_m_1_5xmu_PT | Separation Power = 0.026711 | Variable Type : Float
B_mu_deltaPT | Separation Power = 0.026711 | Variable Type : Float
mu_2_00_IT | Separation Power = 0.026413 | Variable Type : Double
B_PT | Separation Power = 0.026367 | Variable Type : Float
mu_PT | Separation Power = 0.026364 | Variable Type : Double
K_1_00_cc_asy_PT | Separation Power = 0.025796 | Variable Type : Double
mu_0_50_nc_asy_PT | Separation Power = 0.025791 | Variable Type : Double
K_1_00_cc_IT | Separation Power = 0.025707 | Variable Type : Double
mu_ORIVX_XERR | Separation Power = 0.025706 | Variable Type : Double
K_ORIVX_XERR | Separation Power = 0.025706 | Variable Type : Double
B_ENDVERTEX_XERR | Separation Power = 0.025706 | Variable Type : Double
K_PX | Separation Power = 0.025581 | Variable Type : Double
mu_0_50_nc_IT | Separation Power = 0.025534 | Variable Type : Double
B_TRKISOBDTVELO_D1MAX1_01 | Separation Power = 0.025075 | Variable Type : Double
mu_0_50_nc_asy_P | Separation Power = 0.024921 | Variable Type : Double
mu_0_50_nc_asy_PZ | Separation Power = 0.024889 | Variable Type : Double
K_MasshPi0 | Separation Power = 0.024618 | Variable Type : Float
K_0_50_cc_asy_PT | Separation Power = 0.023942 | Variable Type : Double
K_0_50_cc_IT | Separation Power = 0.023913 | Variable Type : Float
K_0_50_nc_PX | Separation Power = 0.023686 | Variable Type : Double
K_1_00_cc_asy_P | Separation Power = 0.023446 | Variable Type : Double
K_1_00_cc_asy_PZ | Separation Power = 0.023393 | Variable Type : Double
K_IsoMinBDT | Separation Power = 0.023287 | Variable Type : Double
K_0_50_cc_asy_P | Separation Power = 0.023113 | Variable Type : Double
K_0_50_cc_asy_PZ | Separation Power = 0.023089 | Variable Type : Double
K_1_00_nc_PY | Separation Power = 0.022968 | Variable Type : Double
B_TRKISOBDTVELO_01 | Separation Power = 0.022917 | Variable Type : Double
mu_IsoMinBDT | Separation Power = 0.022899 | Variable Type : Double
K_1_50_cc_asy_P | Separation Power = 0.022542 | Variable Type : Double
K_1_50_cc_asy_PZ | Separation Power = 0.022480 | Variable Type : Double
K_PE | Separation Power = 0.022166 | Variable Type : Double
K_P | Separation Power = 0.022166 | Variable Type : Double
K_PZ | Separation Power = 0.021680 | Variable Type : Double
K_PY | Separation Power = 0.021360 | Variable Type : Double
mu_PE | Separation Power = 0.020980 | Variable Type : Double
mu_P | Separation Power = 0.020979 | Variable Type : Double
K_2_00_cc_asy_P | Separation Power = 0.020939 | Variable Type : Double
K_2_00_cc_asy_PZ | Separation Power = 0.020851 | Variable Type : Double
mu_PZ | Separation Power = 0.020848 | Variable Type : Double
K_1_50_nc_PZ | Separation Power = 0.019579 | Variable Type : Double
mu_0_50_IT | Separation Power = 0.019377 | Variable Type : Double
mu_1_00_nc_PZ | Separation Power = 0.019165 | Variable Type : Double
mu_ConeIso | Separation Power = 0.019082 | Variable Type : Double
min_ConeIso | Separation Power = 0.019082 | Variable Type : Float
K_ConeIso | Separation Power = 0.019082 | Variable Type : Double
mu_1_00_nc_PY | Separation Power = 0.019037 | Variable Type : Double
K_MIPCHI2DV_PV | Separation Power = 0.018875 | Variable Type : Double
K_IPCHI2_OWNPV | Separation Power = 0.018875 | Variable Type : Double
K_IP_OWNPV | Separation Power = 0.018647 | Variable Type : Double
B_TRKISOBDTLONG_D1MAX2_01 | Separation Power = 0.017235 | Variable Type : Double
mu_2_00_cc_asy_P | Separation Power = 0.016867 | Variable Type : Double
mu_2_00_cc_asy_PZ | Separation Power = 0.016832 | Variable Type : Double
mu_1_50_nc_PZ | Separation Power = 0.016805 | Variable Type : Double
mu_1_00_nc_PX | Separation Power = 0.016377 | Variable Type : Double
mu_ORIVX_YERR | Separation Power = 0.016111 | Variable Type : Double
K_ORIVX_YERR | Separation Power = 0.016111 | Variable Type : Double
B_ENDVERTEX_YERR | Separation Power = 0.016111 | Variable Type : Double
K_0_50_nc_deltaEta | Separation Power = 0.016022 | Variable Type : Double
K_ProbNNp | Separation Power = 0.015955 | Variable Type : Double
mu_1_50_cc_asy_PZ | Separation Power = 0.015864 | Variable Type : Double
mu_1_50_cc_asy_P | Separation Power = 0.015839 | Variable Type : Double
mu_1_50_nc_PY | Separation Power = 0.015019 | Variable Type : Double
Mass_KKisotr_as_KK | Separation Power = 0.014467 | Variable Type : Double
K_1_50_nc_PY | Separation Power = 0.014435 | Variable Type : Double
B_PX | Separation Power = 0.014347 | Variable Type : Double
mu_2_00_cc_IT | Separation Power = 0.014052 | Variable Type : Double
mu_2_00_cc_asy_PT | Separation Power = 0.013843 | Variable Type : Double
K_1_00_nc_PX | Separation Power = 0.013600 | Variable Type : Double
mu_1_50_cc_asy_PT | Separation Power = 0.013595 | Variable Type : Double
mu_1_50_cc_IT | Separation Power = 0.013546 | Variable Type : Double
mu_1_50_nc_PX | Separation Power = 0.013345 | Variable Type : Double
mu_1_00_cc_asy_PZ | Separation Power = 0.013252 | Variable Type : Double
mu_1_00_cc_asy_P | Separation Power = 0.013239 | Variable Type : Double
mu_ProbNNk | Separation Power = 0.012837 | Variable Type : Double
B_PY | Separation Power = 0.012824 | Variable Type : Double
K_2_00_nc_PZ | Separation Power = 0.012784 | Variable Type : Double
K_NIsoTr_ANGLE | Separation Power = 0.012548 | Variable Type : Double
mu_2_00_nc_PZ | Separation Power = 0.012490 | Variable Type : Double
K_NIsoTr_FC | Separation Power = 0.012270 | Variable Type : Double
K_2_00_nc_PY | Separation Power = 0.012001 | Variable Type : Double
mu_1_00_cc_asy_PT | Separation Power = 0.011986 | Variable Type : Double
mu_1_00_cc_IT | Separation Power = 0.011874 | Variable Type : Double
K_1_00_nc_deltaEta | Separation Power = 0.011392 | Variable Type : Double
mu_ORIVX_ZERR | Separation Power = 0.011154 | Variable Type : Double
K_ORIVX_ZERR | Separation Power = 0.011154 | Variable Type : Double
B_ENDVERTEX_ZERR | Separation Power = 0.011154 | Variable Type : Double
mu_2_00_nc_PY | Separation Power = 0.010888 | Variable Type : Double
mu_0_50_nc_PY | Separation Power = 0.010787 | Variable Type : Double
mu_2_00_nc_PX | Separation Power = 0.010691 | Variable Type : Double
K_Pi0_E | Separation Power = 0.010471 | Variable Type : Float
K_Pi0_PZ | Separation Power = 0.010469 | Variable Type : Float
K_1_50_nc_deltaEta | Separation Power = 0.009611 | Variable Type : Double
mu_0_50_nc_PX | Separation Power = 0.009541 | Variable Type : Double
B_TRKISOBDTVELO_D1MAX2_01 | Separation Power = 0.009485 | Variable Type : Double
mu_0_50_cc_asy_PZ | Separation Power = 0.009345 | Variable Type : Double
mu_0_50_cc_asy_P | Separation Power = 0.009338 | Variable Type : Float
B_TRKISOBDTVELO_D2MAX1_01 | Separation Power = 0.009055 | Variable Type : Double
mu_0_50_cc_asy_PT | Separation Power = 0.008948 | Variable Type : Double
K_1_50_nc_PX | Separation Power = 0.008894 | Variable Type : Double
K_2_00_nc_deltaEta | Separation Power = 0.008891 | Variable Type : Double
mu_0_50_cc_IT | Separation Power = 0.008852 | Variable Type : Double
K_2_00_nc_PX | Separation Power = 0.008311 | Variable Type : Double
mu_0_50_nc_PZ | Separation Power = 0.008294 | Variable Type : Double
B_TRKISOBDTLONG_D2MAX1_01 | Separation Power = 0.007747 | Variable Type : Double
K_ProbNNpi | Separation Power = 0.007277 | Variable Type : Double
mu_1_00_nc_deltaEta | Separation Power = 0.007193 | Variable Type : Double
mu_PY | Separation Power = 0.007152 | Variable Type : Double
mu_0_50_nc_deltaEta | Separation Power = 0.007100 | Variable Type : Double
nPVs | Separation Power = 0.006578 | Variable Type : Float
nPV | Separation Power = 0.006578 | Variable Type : Float
mu_1_50_nc_deltaEta | Separation Power = 0.006506 | Variable Type : Double
mu_2_00_nc_deltaEta | Separation Power = 0.006419 | Variable Type : Double
mu_IP_OWNPV | Separation Power = 0.006402 | Variable Type : Double
B_TRKISOBDTLONG_D1MAX3_01 | Separation Power = 0.006379 | Variable Type : Double
mu_PX | Separation Power = 0.006306 | Variable Type : Double
B_BS2MUMUBDT_INPUT_MINIPS_01 | Separation Power = 0.006162 | Variable Type : Double
K_pi0_mult | Separation Power = 0.006111 | Variable Type : Float
K_PAIR_M | Separation Power = 0.005931 | Variable Type : Float
Mass_KMuMuisotr_as_KJpsi | Separation Power = 0.005722 | Variable Type : Double
K_0_50_cc_deltaEta | Separation Power = 0.005475 | Variable Type : Float
mu_ORIVX_CHI2 | Separation Power = 0.005352 | Variable Type : Double
K_ORIVX_CHI2 | Separation Power = 0.005352 | Variable Type : Double
B_ENDVERTEX_CHI2 | Separation Power = 0.005352 | Variable Type : Float
B_TRKISOBDTVELO_D1MAX3_01 | Separation Power = 0.005156 | Variable Type : Double
B_cosTheta1_star | Separation Power = 0.004967 | Variable Type : Float
B_cosTheta2_star | Separation Power = 0.004949 | Variable Type : Double
K_Pi0_DeltaR | Separation Power = 0.004906 | Variable Type : Float
K_Pi0Ph1_CL | Separation Power = 0.004906 | Variable Type : Float
K_Pi0Ph2_CL | Separation Power = 0.004906 | Variable Type : Float
K_Pi0_PY | Separation Power = 0.004906 | Variable Type : Float
K_Pi0_M | Separation Power = 0.004906 | Variable Type : Float
K_Pi0_PX | Separation Power = 0.004906 | Variable Type : Float
mu_ProbNNpi | Separation Power = 0.004741 | Variable Type : Double
nTracks | Separation Power = 0.004576 | Variable Type : Float
nSPDHits | Separation Power = 0.004362 | Variable Type : Float
mu_NIsoTr_ANGLE | Separation Power = 0.003934 | Variable Type : Double
B_TRKISOBDTLONG_D2MAX2_01 | Separation Power = 0.003576 | Variable Type : Double
K_1_00_cc_deltaEta | Separation Power = 0.003513 | Variable Type : Double
B_TRKISOBDTVELO_D2MAX2_01 | Separation Power = 0.003466 | Variable Type : Double
B_FD_S | Separation Power = 0.003223 | Variable Type : Float
mu_2_00_cc_deltaEta | Separation Power = 0.003211 | Variable Type : Double
mu_1_50_cc_deltaEta | Separation Power = 0.003095 | Variable Type : Double
B_BS2MUMUBDT_INPUT_IPS_01 | Separation Power = 0.002713 | Variable Type : Double
K_1_50_cc_deltaEta | Separation Power = 0.002615 | Variable Type : Double
mu_NIsoTr_FC | Separation Power = 0.002604 | Variable Type : Double
mu_0_50_cc_deltaEta | Separation Power = 0.002593 | Variable Type : Double
mu_1_00_cc_deltaEta | Separation Power = 0.002504 | Variable Type : Double
K_1_50_cc_PZ | Separation Power = 0.002310 | Variable Type : Double
mu_ProbNNmu | Separation Power = 0.002181 | Variable Type : Double
K_2_00_cc_deltaEta | Separation Power = 0.002142 | Variable Type : Double
B_TRKISOBDTVELO_D2MAX3_01 | Separation Power = 0.002101 | Variable Type : Double
B_IPCHI2_OWNPV | Separation Power = 0.001918 | Variable Type : Double
B_TRKISOBDTLONG_D2MAX3_01 | Separation Power = 0.001834 | Variable Type : Double
K_1_00_cc_PZ | Separation Power = 0.001827 | Variable Type : Double
mu_MIPCHI2DV_PV | Separation Power = 0.001714 | Variable Type : Double
mu_IPCHI2_OWNPV | Separation Power = 0.001714 | Variable Type : Double
B_IP_OWNPV | Separation Power = 0.001668 | Variable Type : Double
mu_TRACK_Key | Separation Power = 0.001635 | Variable Type : Float
K_1_50_cc_PY | Separation Power = 0.001598 | Variable Type : Double
mu_PAIR_M | Separation Power = 0.001550 | Variable Type : Float
B_AllIP | Separation Power = 0.001528 | Variable Type : Float
Mass_MuMuisotr_as_mumu | Separation Power = 0.001518 | Variable Type : Double
K_0_50_cc_PX | Separation Power = 0.001469 | Variable Type : Double
mu_ProbNNp | Separation Power = 0.001451 | Variable Type : Double
K_1_00_cc_PY | Separation Power = 0.001381 | Variable Type : Double
K_ProbNNghost | Separation Power = 0.001376 | Variable Type : Double
K_0_50_cc_PY | Separation Power = 0.001356 | Variable Type : Double
B_DIRA_OWNPV | Separation Power = 0.001320 | Variable Type : Float
K_IsoMinBDT_m_mu_IsoMinBDT | Separation Power = 0.001224 | Variable Type : Float
mu_1_50_cc_PX | Separation Power = 0.001139 | Variable Type : Double
B_FDCHI2_OWNPV | Separation Power = 0.001025 | Variable Type : Double
B_TAUCHI2 | Separation Power = 0.001008 | Variable Type : Double
K_1_50_cc_PX | Separation Power = 0.001001 | Variable Type : Double
mu_1_00_cc_PX | Separation Power = 0.000972 | Variable Type : Double
K_NIsoTr_ProbNNpi | Separation Power = 0.000888 | Variable Type : Double
K_ProbNNk | Separation Power = 0.000852 | Variable Type : Double
mu_NIsoTr_ProbNNpi | Separation Power = 0.000838 | Variable Type : Double
B_ETA | Separation Power = 0.000833 | Variable Type : Float
mu_ORIVX_Y | Separation Power = 0.000822 | Variable Type : Double
K_ORIVX_Y | Separation Power = 0.000822 | Variable Type : Double
B_ENDVERTEX_Y | Separation Power = 0.000822 | Variable Type : Double
K_1_00_cc_PX | Separation Power = 0.000772 | Variable Type : Double
PVNTRACKS | Separation Power = 0.000761 | Variable Type : Float
PVNDOF | Separation Power = 0.000761 | Variable Type : Float
B_FlightLength | Separation Power = 0.000747 | Variable Type : Float
B_FlightDirMag | Separation Power = 0.000747 | Variable Type : Double
B_FD_OWNPV | Separation Power = 0.000747 | Variable Type : Double
K_TRACK_GhostProb | Separation Power = 0.000725 | Variable Type : Double
mu_ORIVX_X | Separation Power = 0.000687 | Variable Type : Double
K_ORIVX_X | Separation Power = 0.000687 | Variable Type : Double
B_ENDVERTEX_X | Separation Power = 0.000687 | Variable Type : Double
PVCHI2 | Separation Power = 0.000687 | Variable Type : Float
K_TRACK_CHI2NDOF | Separation Power = 0.000684 | Variable Type : Double
PVYERR | Separation Power = 0.000646 | Variable Type : Float
PVXERR | Separation Power = 0.000646 | Variable Type : Float
K_TRACK_PCHI2 | Separation Power = 0.000628 | Variable Type : Double
mu_TRACK_GhostProb | Separation Power = 0.000606 | Variable Type : Double
K_TRACK_Key | Separation Power = 0.000561 | Variable Type : Float
B_AllDIRA | Separation Power = 0.000552 | Variable Type : Float
K_0_50_cc_PZ | Separation Power = 0.000531 | Variable Type : Double
PVZERR | Separation Power = 0.000480 | Variable Type : Float
mu_1_50_cc_PY | Separation Power = 0.000476 | Variable Type : Double
mu_NIsoTr_DOCA | Separation Power = 0.000432 | Variable Type : Double
K_NIsoTr_DOCA | Separation Power = 0.000312 | Variable Type : Double
mu_NIsoTr_ProbNNe | Separation Power = 0.000302 | Variable Type : Double
K_NIsoTr_ProbNNk | Separation Power = 0.000297 | Variable Type : Double
B_OWNPV_NDOF | Separation Power = 0.000291 | Variable Type : Float
B_OWNPV_CHI2 | Separation Power = 0.000289 | Variable Type : Double
K_NIsoTr_PY | Separation Power = 0.000287 | Variable Type : Double
K_TRACK_MatchCHI2 | Separation Power = 0.000277 | Variable Type : Double
mu_ProbNNghost | Separation Power = 0.000267 | Variable Type : Double
K_NIsoTr_ProbNNp | Separation Power = 0.000266 | Variable Type : Double
K_NIsoTr_ProbNNe | Separation Power = 0.000247 | Variable Type : Double
mu_NIsoTr_ProbNNp | Separation Power = 0.000247 | Variable Type : Double
mu_NIsoTr_ProbNNk | Separation Power = 0.000237 | Variable Type : Double
mu_0_50_cc_PX | Separation Power = 0.000226 | Variable Type : Double
B_AllIPchi2 | Separation Power = 0.000216 | Variable Type : Float
mu_NIsoTr_ProbNNghost | Separation Power = 0.000212 | Variable Type : Double
B_OWNPV_YERR | Separation Power = 0.000209 | Variable Type : Double
K_NIsoTr_ProbNNghost | Separation Power = 0.000170 | Variable Type : Double
mu_ORIVX_COV_ | Separation Power = 0.000156 | Variable Type : Float
K_ORIVX_COV_ | Separation Power = 0.000156 | Variable Type : Float
B_ENDVERTEX_COV_ | Separation Power = 0.000156 | Variable Type : Float
mu_1_00_cc_PY | Separation Power = 0.000151 | Variable Type : Double
K_NIsoTr_PX | Separation Power = 0.000146 | Variable Type : Double
B_OWNPV_XERR | Separation Power = 0.000111 | Variable Type : Double
B_OWNPV_ZERR | Separation Power = 0.000106 | Variable Type : Double
mu_TRACK_MatchCHI2 | Separation Power = 0.000103 | Variable Type : Double
K_ProbNNe | Separation Power = 0.000094 | Variable Type : Double
mu_NIsoTr_VTXY | Separation Power = 0.000093 | Variable Type : Double
mu_ORIVX_Z | Separation Power = 0.000085 | Variable Type : Double
K_ORIVX_Z | Separation Power = 0.000085 | Variable Type : Double
B_ENDVERTEX_Z | Separation Power = 0.000085 | Variable Type : Double
mu_NIsoTr_PY | Separation Power = 0.000083 | Variable Type : Double
K_0_50_nc_asy_PX | Separation Power = 0.000075 | Variable Type : Double
PVX | Separation Power = 0.000074 | Variable Type : Float
PVY | Separation Power = 0.000073 | Variable Type : Float
mu_NIsoTr_PX | Separation Power = 0.000071 | Variable Type : Double
B_OWNPV_X | Separation Power = 0.000070 | Variable Type : Double
mu_TRACK_PCHI2 | Separation Power = 0.000069 | Variable Type : Double
mu_NIsoTr_PVDIS | Separation Power = 0.000068 | Variable Type : Double
B_OWNPV_Y | Separation Power = 0.000068 | Variable Type : Double
mu_NIsoTr_SVDIS | Separation Power = 0.000067 | Variable Type : Double
mu_0_50_cc_PY | Separation Power = 0.000065 | Variable Type : Double
B_OWNPV_Z | Separation Power = 0.000063 | Variable Type : Double
mu_NIsoTr_VTXZ | Separation Power = 0.000055 | Variable Type : Double
mu_NIsoTr_VTXX | Separation Power = 0.000052 | Variable Type : Double
mu_ProbNNe | Separation Power = 0.000051 | Variable Type : Double
mu_TRACK_CHI2NDOF | Separation Power = 0.000049 | Variable Type : Double
mu_PAIR_IPchi2 | Separation Power = 0.000043 | Variable Type : Double
mu_1_00_nc_asy_PX | Separation Power = 0.000039 | Variable Type : Double
PVZ | Separation Power = 0.000039 | Variable Type : Float
K_NIsoTr_SVDIS | Separation Power = 0.000037 | Variable Type : Double
K_0_50_nc_asy_PY | Separation Power = 0.000037 | Variable Type : Double
K_NIsoTr_PVDIS | Separation Power = 0.000037 | Variable Type : Double
mu_1_00_cc_asy_PY | Separation Power = 0.000037 | Variable Type : Double
mu_1_00_cc_PZ | Separation Power = 0.000036 | Variable Type : Double
mu_2_00_nc_asy_PX | Separation Power = 0.000034 | Variable Type : Double
K_PAIR_IPchi2 | Separation Power = 0.000032 | Variable Type : Double
K_NIsoTr_VTXY | Separation Power = 0.000031 | Variable Type : Double
K_NIsoTr_VTXX | Separation Power = 0.000031 | Variable Type : Double
mu_NIsoTr_PT | Separation Power = 0.000030 | Variable Type : Double
K_1_50_cc_asy_PY | Separation Power = 0.000029 | Variable Type : Double
mu_0_50_cc_asy_PY | Separation Power = 0.000028 | Variable Type : Double
mu_1_50_cc_PZ | Separation Power = 0.000028 | Variable Type : Double
mu_NIsoTr_ProbNNmu | Separation Power = 0.000028 | Variable Type : Double
mu_2_00_cc_asy_PX | Separation Power = 0.000027 | Variable Type : Double
mu_0_50_nc_asy_PX | Separation Power = 0.000026 | Variable Type : Double
mu_1_50_cc_asy_PY | Separation Power = 0.000026 | Variable Type : Double
mu_0_50_nc_asy_PY | Separation Power = 0.000025 | Variable Type : Double
B_FlightAngle | Separation Power = 0.000025 | Variable Type : Float
mu_2_00_nc_asy_PY | Separation Power = 0.000025 | Variable Type : Double
mu_NIsoTr_PZ | Separation Power = 0.000024 | Variable Type : Double
mu_NIsoTr_P | Separation Power = 0.000024 | Variable Type : Double
mu_NIsoTr_PE | Separation Power = 0.000023 | Variable Type : Double
K_NIsoTr_ProbNNmu | Separation Power = 0.000023 | Variable Type : Double
K_1_00_cc_asy_PY | Separation Power = 0.000022 | Variable Type : Double
K_NIsoTr_PZ | Separation Power = 0.000020 | Variable Type : Double
mu_1_50_nc_asy_PY | Separation Power = 0.000020 | Variable Type : Double
K_NIsoTr_PT | Separation Power = 0.000020 | Variable Type : Double
K_NIsoTr_PE | Separation Power = 0.000020 | Variable Type : Double
K_NIsoTr_P | Separation Power = 0.000020 | Variable Type : Double
K_1_00_nc_asy_PX | Separation Power = 0.000019 | Variable Type : Double
K_2_00_cc_PZ | Separation Power = 0.000018 | Variable Type : Double
K_2_00_cc_asy_PY | Separation Power = 0.000017 | Variable Type : Double
K_1_50_nc_asy_PX | Separation Power = 0.000017 | Variable Type : Double
K_2_00_cc_PX | Separation Power = 0.000017 | Variable Type : Double
K_2_00_nc_asy_PX | Separation Power = 0.000016 | Variable Type : Double
mu_2_00_cc_PX | Separation Power = 0.000015 | Variable Type : Double
mu_2_00_cc_PZ | Separation Power = 0.000015 | Variable Type : Double
K_ProbNNmu | Separation Power = 0.000013 | Variable Type : Double
K_1_00_nc_asy_PY | Separation Power = 0.000013 | Variable Type : Double
K_2_00_nc_asy_PY | Separation Power = 0.000012 | Variable Type : Double
K_0_50_cc_asy_PY | Separation Power = 0.000011 | Variable Type : Double
K_NIsoTr_M | Separation Power = 0.000010 | Variable Type : Double
K_NIsoTr_VTXZ | Separation Power = 0.000010 | Variable Type : Double
mu_1_00_cc_asy_PX | Separation Power = 0.000010 | Variable Type : Double
K_1_50_nc_asy_PY | Separation Power = 0.000010 | Variable Type : Double
mu_0_50_cc_asy_PX | Separation Power = 0.000009 | Variable Type : Double
K_0_50_cc_asy_PX | Separation Power = 0.000009 | Variable Type : Double
mu_2_00_cc_asy_PY | Separation Power = 0.000009 | Variable Type : Double
